C:\Users\Grupo1\Laura\sjava_laura\simpleweb\src\main\java\com\sjava\web\PersonaController.java
C:\Users\Grupo1\Laura\sjava_laura\simpleweb\src\main\java\com\sjava\web\App.java
C:\Users\Grupo1\Laura\sjava_laura\simpleweb\src\main\java\com\sjava\web\Persona.java
